{
  "asset_name": "fire_stone",
  "description": {
    "translate": "trim_material.cobblemon.fire_stone",
    "fallback": "Fire Stone",
    "color": "#FFCA60"
  },
  "ingredient": "cobblemon:fire_stone",
  "item_model_index": 0.2622
}
