{
  "asset_name": "leaf_stone",
  "description": {
    "translate": "trim_material.cobblemon.leaf_stone",
    "fallback": "Leaf Stone",
    "color": "#849961"
  },
  "ingredient": "cobblemon:leaf_stone",
  "item_model_index": 0.2625
}
