{
  "values": [
    "cobblemon:fire_stone",
    "cobblemon:water_stone",
    "cobblemon:thunder_stone",
    "cobblemon:leaf_stone",
    "cobblemon:moon_stone",
    "cobblemon:sun_stone",
    "cobblemon:shiny_stone",
    "cobblemon:dusk_stone",
    "cobblemon:dawn_stone",
    "cobblemon:ice_stone",
    "cobblemon:tumblestone",
    "cobblemon:black_tumblestone",
    "cobblemon:sky_tumblestone"
  ]
}