﻿{
  "name": "Coalossal",
  "nationalPokedexNumber": 839,
  "primaryType": "rock",
  "secondaryType": "fire",
  "abilities": [
    "steamengine",
    "flamebody",
    "h:flashfire"
  ],
  "baseStats": {
    "hp": 110,
    "attack": 80,
    "defence": 120,
    "special_attack": 80,
    "special_defence": 90,
    "speed": 30
  },
  "catchRate": 45,
  "maleRatio": 0.5,
  "shoulderMountable": false,
  "forms": [
    {
      "name": "Gmax",
      "primaryType": "rock",
      "secondaryType": "fire",
      "abilities": [
        "steamengine",
        "flamebody",
        "h:flashfire"
      ],
      "baseStats": {
        "hp": 110,
        "attack": 80,
        "defence": 120,
        "special_attack": 80,
        "special_defence": 90,
        "speed": 30
      },
      "catchRate": 45,
      "maleRatio": 0.5,
      "baseExperienceYield": 255,
      "baseFriendship": 50,
      "evYield": {
        "hp": 0,
        "attack": 0,
        "defence": 3,
        "special_attack": 0,
        "special_defence": 0,
        "speed": 0
      },
      "experienceGroup": "medium_slow",
      "eggCycles": 15,
      "eggGroups": [
        "mineral"
      ],
      "labels": [
        "gen8",
        "gmax"
      ],
      "aspects": [
        "gmax"
      ],
      "height": 420,
      "weight": 0,
      "cannotDynamax": false,
      "battleOnly": false
    }
  ],
  "baseExperienceYield": 255,
  "experienceGroup": "medium_slow",
  "eggCycles": 15,
  "eggGroups": [
    "mineral"
  ],
  "moves": [
    "1:flamecharge",
    "1:rapidspin",
    "1:smackdown",
    "1:smokescreen",
    "1:tackle",
    "15:rockpolish",
    "20:ancientpower",
    "27:incinerate",
    "37:stealthrock",
    "45:heatcrash",
    "54:rockblast",
    "63:burnup",
    "63:stoneedge",
    "tm:attract",
    "tm:bodypress",
    "tm:bodyslam",
    "tm:bulldoze",
    "tm:curse",
    "tm:dig",
    "tm:earthpower",
    "tm:earthquake",
    "tm:endure",
    "tm:facade",
    "tm:fireblast",
    "tm:firepunch",
    "tm:firespin",
    "tm:flamecharge",
    "tm:flamethrower",
    "tm:flareblitz",
    "tm:gigaimpact",
    "tm:gyroball",
    "tm:heatcrash",
    "tm:heatwave",
    "tm:heavyslam",
    "tm:highhorsepower",
    "tm:hyperbeam",
    "tm:irondefense",
    "tm:ironhead",
    "tm:megakick",
    "tm:megapunch",
    "tm:meteorbeam",
    "tm:mudslap",
    "tm:overheat",
    "tm:powergem",
    "tm:protect",
    "tm:reflect",
    "tm:rest",
    "tm:rockblast",
    "tm:rockslide",
    "tm:rocktomb",
    "tm:round",
    "tm:sandstorm",
    "tm:sandtomb",
    "tm:scald",
    "tm:scorchingsands",
    "tm:selfdestruct",
    "tm:sleeptalk",
    "tm:smackdown",
    "tm:snore",
    "tm:solarbeam",
    "tm:spikes",
    "tm:stealthrock",
    "tm:stoneedge",
    "tm:substitute",
    "tm:sunnyday",
    "tm:takedown",
    "tm:temperflare",
    "tm:terablast",
    "tm:willowisp",
    "tutor:meteorbeam",
    "tutor:scorchingsands"
  ],
  "labels": [
    "gen8"
  ],
  "pokedex": [
    "cobblemon.species.coalossal.desc"
  ],
  "preEvolution": "carkol",
  "evolutions": [],
  "baseScale": 1,
  "hitbox": {
    "width": 1,
    "height": 1,
    "fixed": false
  },
  "baseFriendship": 50,
  "evYield": {
    "hp": 0,
    "attack": 0,
    "defence": 3,
    "special_attack": 0,
    "special_defence": 0,
    "speed": 0
  },
  "height": 28,
  "weight": 3105,
  "aspects": [],
  "cannotDynamax": false,
  "drops": {
    "amount": 5,
    "entries": [
      {
        "item": "minecraft:coal",
        "quantityRange": "0-3"
      },
      {
        "item": "cobblemon:black_augurite",
        "percentage": 10.0
      },
      {
        "item": "cobblemon:passho_berry",
        "percentage": 10.0
      }
    ]
  }
}