{
  "placement": {
    "type": "minecraft:random_spread",
    "spacing": 3,
    "separation": 2,
    "salt": 1695780744,
    "spread_type": "triangular",
    "height": {
      "max_inclusive": {
        "absolute": 50
      },
      "min_exclusive": {
        "absolute": -20
      }
    }
  },
  "structures": [
    {
      "structure": "cobblemon:lush_fossils_watergeode",
      "weight": 1
    },
    {
      "structure": "cobblemon:lush_fossils_pond",
      "weight": 1
    },
    {
      "structure": "cobblemon:lush_fossils_arch",
      "weight": 1
    }
  ]
}