{
  "required": true,
  "package": "com.cobblemon.mod.common.mixin",
  "compatibilityLevel": "JAVA_16",
  "minVersion": "0.8",
  "client": [
    "BuiltinModelItemRendererMixin",
    "EntityRenderDispatcherMixin",
    "GameRendererMixin",
    "ModelPartMixin",
    "MusicTrackerMixin",
    "PartyScrollMixin",
    "SoundManagerMixin",
    "SoundSystemMixin",
    "accessor.KeyBindingAccessor",
    "invoker.ClientPlayNetworkHandlerInvoker",
    "pokeball.ItemRendererMixin",
    "ModelLoaderMixin"
  ],
  "mixins": [
    "EntityVillagerMixin",
    "ExplosionMixin",
    "LivingEntityMixin",
    "MinecraftDedicatedServerMixin",
    "PlayerMixin",
    "PointedDripstoneBlockMixin",
    "ShearsDispenserBehaviorMixin",
    "StructurePoolAccessor",
    "StructurePoolGeneratorMixin",
    "StructureProcessorListMixin",
    "accessor.AccessorEntity",
    "accessor.BoatEntityAccessor",
    "accessor.StatusEffectInstanceAccessor",
    "entity.TameableEntityMixin",
    "invoker.BlocksInvoker",
    "invoker.BooleanRuleInvoker",
    "invoker.DoorBlockInvoker",
    "invoker.FireBlockInvoker",
    "invoker.PressurePlateBlockInvoker",
    "invoker.StairsBlockInvoker",
    "invoker.TrapdoorBlockInvoker",
    "pokeball.ThrownEntityMixin",
    "StructurePoolGeneratorMixin",
    "StructurePoolAccessor",
    "StructureProcessorListMixin"
  ],
  "injectors": {
    "defaultRequire": 1
  }
}
